…
```
## Saving 7 x 5 in image
```

```r
events %>% 
  group_by(session_len) %>% 
  summarise(n_session_len = n()) %>% 
  arrange(desc(n_session_len))
```

```
## # A tibble: 1,578 x 2
##    session_len n_session_len
##          <dbl>         <int>
##  1           0         27618
##  2         423          5491
##  3         424          4915
##  4         425          4035
##  5         426          3881
##  6         429          3380
##  7         427          3318
##  8         428          3300
##  9         430          2963
## 10         422          2746
## # … with 1,568 more rows
```
…
